ST 558 Homework 8/9
…
Main Arguments:
  penalty = tune()
  mixture = 1

Computational engine: glmnet 

#Specify the grid for the tuning parameter
LASSO_grid <- LASSO_wkf |> tune_grid(resamples = bike_10_fold,
              grid = grid_regular(penalty(), levels = 200)) 

#Collect metrics and choose model with lowest RMSE
LASSO_grid |> collect_metrics() |> filter(.metric == "rmse")

# A tibble: 200 × 7
    penalty .metric .estimator  mean     n std_err .config               
      <dbl> <chr>   <chr>      <dbl> <int>   <dbl> <chr>                 
 1 1   e-10 rmse    standard   2952.    10    156. Preprocessor1_Model001
 2 1.12e-10 rmse    standard   2952.    10    156. Preprocessor1_Model002
 3 1.26e-10 rmse    standard   2952.    10    156. Preprocessor1_Model003
 4 1.41e-10 rmse    standard   2952.    10    156. Preprocessor1_Model004
 5 1.59e-10 rmse    standard   2952.    10    156. Preprocessor1_Model005
 6 1.78e-10 rmse    standard   2952.    10    156. Preprocessor1_Model006
 7 2.00e-10 rmse    standard   2952.    10    156. Preprocessor1_Model007
 8 2.25e-10 rmse    standard   2952.    10    156. Preprocessor1_Model008
 9 2.52e-10 rmse    standard   2952.    10    156. Preprocessor1_Model009
10 2.83e-10 rmse    standard   2952.    10    156. Preprocessor1_Model010
# ℹ 190 more rows
…
    rmse      mae 
3157.321 2546.378 

rf_metrics <- c("rmse"=rf_final_pred |> rmse_vec(truth = true_rentals),"mae"=rf_final_pred |> mae_vec(truth = true_rentals))
rf_metrics

    rmse      mae 
2641.164 2092.333 

The random forest model has the smallest RMSE, but the multiple linear regression has the smallest MAE among these classes of models. Let’s summarize the structure of each of these models, starting with model effects tables for the multiple linear regression and LASSO models:

MLR_model <- bike_wf3 |> fit(bike_train)
tidy(MLR_model)

# A tibble: 29 × 5
   term                                estimate std.error statistic  p.value
   <chr>                                  <dbl>     <dbl>     <dbl>    <dbl>
 1 (Intercept)                           21977.     1564.    14.1   6.25e-33
 2 seasons_Spring                        -1832.      248.    -7.38  2.77e-12
 3 seasons_Summer                         7679.      942.     8.15  2.13e-14
 4 seasons_Winter                        -4342.     1027.    -4.23  3.40e- 5
 5 holiday_No.Holiday                      806.      187.     4.31  2.44e- 5
 6 day_type_Weekend                      -1056.      173.    -6.11  4.06e- 9
 7 seasons_Spring_x_holiday_No.Holiday    -317.      237.    -1.34  1.82e- 1
 8 seasons_Summer_x_holiday_No.Holiday    -204.      252.    -0.807 4.20e- 1
 9 seasons_Winter_x_holiday_No.Holiday    -335.      200.    -1.67  9.65e- 2
10 seasons_Spring_x_mean_temp             1966.      482.     4.08  6.11e- 5
# ℹ 19 more rows

LASSO_model <- LASSO_final_wkf |> fit(bike_train) 
tidy(LASSO_model)

# A tibble: 29 × 3
   term                                estimate      penalty
   <chr>                                  <dbl>        <dbl>
 1 (Intercept)                           22731. 0.0000000001
 2 seasons_Spring                        -1824. 0.0000000001
 3 seasons_Summer                         7902. 0.0000000001
 4 seasons_Winter                        -3807. 0.0000000001
 5 holiday_No.Holiday                      799. 0.0000000001
 6 day_type_Weekend                      -1055. 0.0000000001
 7 seasons_Spring_x_holiday_No.Holiday    -280. 0.0000000001
 8 seasons_Summer_x_holiday_No.Holiday    -170. 0.0000000001
 9 seasons_Winter_x_holiday_No.Holiday    -294. 0.0000000001
10 seasons_Spring_x_mean_temp             2104. 0.0000000001
# ℹ 19 more rows
…
